{
    "editor": [
        {
            "icon": "",
            "key": "general",
            "header": "General",
            "disabled": false,
            "fields": [
                {
                    "key": "coin-padding",
                    "header": "Coin Padding",
                    "type": "text"
                },
                {
                    "key": "game-title",
                    "header": "Game Title",
                    "type": "text"
                }
            ]
        },
        {
            "icon": "",
            "key": "images",
            "header": "Images",
            "disabled": false,
            "fields": [
                {
                    "key": "coin-a",
                    "header": "Coin A",
                    "type": "image"
                },
                {
                    "key": "coin-b",
                    "header": "Coin B",
                    "type": "image"
                },
                {
                    "key": "coin-c",
                    "header": "Coin C",
                    "type": "image"
                },
                {
                    "key": "coin-d",
                    "header": "Coin D",
                    "type": "image"
                },
                {
                    "key": "coin-e",
                    "header": "Coin e",
                    "type": "image"
                },
                {
                    "key": "coin-f",
                    "header": "Coin f",
                    "type": "image"
                }
            ]
        }
    ],
    "config": {
        "general": {
            "coin-padding": "3px",
            "game-title": "3 Match Crash"
        },
        "images": {
            "coin-a": "http://playcent.com/protected/project-picker/2146e3e60bff474392d42cf1b1588f3b",
            "coin-b": "http://playcent.com/protected/project-picker/c2f81a607b6646ac9c2aa1e68539335f",
            "coin-c": "http://playcent.com/protected/project-picker/3fa42b7c58d74624b7059cb02a54a6b5",
            "coin-d": "http://playcent.com/protected/project-picker/6d1f534cb55e42bfaf68f0647db96432",
            "coin-e": "http://playcent.com/protected/project-picker/7cf65684a8264526984aa9ec5df3a66d",
            "coin-f": "http://playcent.com/protected/project-picker/eb19a0002d854a7499077564febf304a"
        }
    }
}